Primeiros passos para visualização de séries
…
Usando o formato tstible

### transformando para o formato tstible
serie <- tute1 %>%
  mutate(Quarter = yearmonth(Quarter)) %>%
  as_tsibble(index = Quarter)
serie

# A tsibble: 100 x 4 [3M]
    Quarter Sales AdBudget   GDP
      <mth> <dbl>    <dbl> <dbl>
 1 1981 mar 1020.     659.  252.
 2 1981 jun  889.     589   291.
 3 1981 set  795      512.  291.
 4 1981 dez 1004.     614.  292.
 5 1982 mar 1058.     647.  279.
 6 1982 jun  944.     602   254 
 7 1982 set  778.     531.  296.
 8 1982 dez  932.     608.  272.
 9 1983 mar  996.     638.  260.
10 1983 jun  908.     582.  280.
# ... with 90 more rows
…
