Taxa de Juros Selic (Acumulado por mês)
…
Os modelos de suavização exponencial de Holt são utilizados satisfatoriamente em séries temporais que apresentam tendência de crescimento linear. A diferença deste método para o método de suavização exponencial simples é que o segundo realiza apenas a suavização do nível da série enquanto o primeiro, além do nível, realiza a suavização da tendencia. O modelo é descrito por três equações e dois parâmetros de suavização. A equação 1 realiza a estimativa do nível, a equação 2 da inclinação e a equação 3 realiza o cálculo da previsão para os próximos k períodos da série temporal.

Modelo de Suavização Exponencial de Holt-Winters (SEHW):

Esse modelo é também conhecido por modelos de Winters, consiste em modelos adequados para séries temporais que apresentam tendência e sazonalidade. Esse modelos se dividem em aditivo(SEHWA) e multiplicativo(SEHWM). Ambos os modelos e suas utilizações são baseados em quatro equações constantes de ajustamento diferentes associadas às componentes de nível, tendência, sazonalidade e a equação de previsão. No modelo aditivo, a amplitude da variação sazonal permanece constante ao longo do tempo, já na multiplicativa, a amplitude da variação sazonal varia ao longo do tempo.

Principais Características da série:

A serie se encaixa em um modelo de suavização exponencial simples, no gráfico da série é perceptível altos valores mensais de juros durantes os anos de 1974 a 1994, é uma série que não possui algum tipo de sazonalidade, será verificados na análise descritiva. Temos como base para o estudo realizado nesse relatório a divulgação mensal dos valores dos juros da taxa Selic pelo BCB ( Banco Central do Brasil), portanto os dados estão atualizados a data de 12 de maio de 2023.

Análise Descritiva:

Transformando a variável character em mês:

# A tsibble: 593 x 2 [1M]
       Data Taxa_de_juros
      <mth>         <dbl>
 1 1974 jan          1.46
 2 1974 fev          1.15
 3 1974 mar          1.16
 4 1974 abr          1.21
 5 1974 mai          1.24
 6 1974 jun          1.51
 7 1974 jul          1.62
 8 1974 ago          1   
 9 1974 set          1.38
10 1974 out          1.12
# ℹ 583 more rows
…
